Test,Num CNN,Num Iters.,Total Conv Time,Virtual Conv Time
lowerA,1,12,2608,192
lowerA,4,12,688,192
capitalA,1,8,1984,128
capitalA,4,8,496,128
vertLine,1,11,2816,176
vertLine,4,11,704,176
circle,1,5,1280,80
circle,4,5,320,80
rect,1,4,1024,64
rect,4,4,256,64
filledSquare,1,3,768,48
filledSquare,4,3,192,48
zero,1,7,1728,112
zero,4,7,432,112
seven,1,11,2736,176
seven,4,11,688,176
eight,1,9,2176,144
eight,4,9,544,144
nine,1,13,2720,208
nine,4,13,736,208