Analog v1-4096,177459.0,177402.0,177617.0,177563.0,177704.0,177429.0,177474.0,177668.0,177439.0,179450.0
Difference Equation v1-4096,167477.0,167311.0,167942.0,167754.0,167427.0,167762.0,167239.0,168264.0,167193.0,167221.0
Analog v2-4096,171085.0,170969.0,170903.0,171371.0,170972.0,171123.0,171494.0,171148.0,171019.0,170979.0
Difference Equation v2-4096,159935.0,159927.0,160182.0,159991.0,160013.0,159947.0,160128.0,160168.0,159982.0
